time 1580612453
new [description:"1.0.0 serial communications to set frequency and morse pattern" entry:"1580612453" modified:"1580612453" status:"pending" uuid:"acd89c1f-16a2-4c93-82b6-f1103b15c31a"]
---
time 1580612484
old [description:"1.0.0 serial communications to set frequency and morse pattern" entry:"1580612453" modified:"1580612453" status:"pending" uuid:"acd89c1f-16a2-4c93-82b6-f1103b15c31a"]
new [description:"serial communications to set frequency and Morse pattern +1.0.0" entry:"1580612453" modified:"1580612484" status:"pending" uuid:"acd89c1f-16a2-4c93-82b6-f1103b15c31a"]
---
time 1580612504
old [description:"serial communications to set frequency and Morse pattern +1.0.0" entry:"1580612453" modified:"1580612484" status:"pending" uuid:"acd89c1f-16a2-4c93-82b6-f1103b15c31a"]
new [description:"serial communications to set frequency and Morse pattern" entry:"1580612453" modified:"1580612504" status:"pending" tags:"v1.0.0" uuid:"acd89c1f-16a2-4c93-82b6-f1103b15c31a"]
---
time 1580612593
new [description:"signal generator serial programming" entry:"1580612593" modified:"1580612593" status:"pending" tags:"v1.0.0" uuid:"8edebcd1-19f4-4440-8efd-6e389c83e616"]
---
time 1580612636
old [description:"serial communications to set frequency and Morse pattern" entry:"1580612453" modified:"1580612504" status:"pending" tags:"v1.0.0" uuid:"acd89c1f-16a2-4c93-82b6-f1103b15c31a"]
new [description:"serial port between dongle and computer to set frequency and Morse pattern" entry:"1580612453" modified:"1580612636" status:"pending" tags:"v1.0.0" uuid:"acd89c1f-16a2-4c93-82b6-f1103b15c31a"]
---
time 1580612677
old [description:"signal generator serial programming" entry:"1580612593" modified:"1580612593" status:"pending" tags:"v1.0.0" uuid:"8edebcd1-19f4-4440-8efd-6e389c83e616"]
new [description:"program signal generator from GPIO" entry:"1580612593" modified:"1580612677" status:"pending" tags:"v1.0.0" uuid:"8edebcd1-19f4-4440-8efd-6e389c83e616"]
---
time 1580614356
new [description:"write the calc_ftword function" entry:"1580614356" modified:"1580614356" status:"pending" tags:"v1.0.0" uuid:"aa2e2d58-4cc3-4fe8-a808-68e3bf6a7539"]
---
time 1580618468
old [description:"write the calc_ftword function" entry:"1580614356" modified:"1580614356" status:"pending" tags:"v1.0.0" uuid:"aa2e2d58-4cc3-4fe8-a808-68e3bf6a7539"]
new [description:"write the calc_ftword function" end:"1580618468" entry:"1580614356" modified:"1580618468" status:"completed" tags:"v1.0.0" uuid:"aa2e2d58-4cc3-4fe8-a808-68e3bf6a7539"]
---
