EESchema Schematic File Version 4
EELAYER 30 0
EELAYER END
$Descr USLetter 11000 8500
encoding utf-8
Sheet 1 1
Title ""
Date ""
Rev ""
Comp ""
Comment1 ""
Comment2 ""
Comment3 ""
Comment4 ""
$EndDescr
Text Notes 6700 7750 0    50   ~ 0
AD9850 21MHz TX
Text Notes 6400 7100 0    50   ~ 0
Ian Huang\nimyxh.net
$Comp
L Device:R R1
U 1 1 5D847D12
P 3650 2850
F 0 "R1" V 3443 2850 50  0000 C CNN
F 1 "1kΩ" V 3534 2850 50  0000 C CNN
F 2 "" V 3580 2850 50  0001 C CNN
F 3 "~" H 3650 2850 50  0001 C CNN
	1    3650 2850
	0    1    1    0   
$EndComp
Wire Wire Line
	3800 2850 3850 2850
$Comp
L Device:R R2
U 1 1 5D849CC2
P 4050 2100
F 0 "R2" V 3843 2100 50  0000 C CNN
F 1 "1kΩ" V 3934 2100 50  0000 C CNN
F 2 "" V 3980 2100 50  0001 C CNN
F 3 "~" H 4050 2100 50  0001 C CNN
	1    4050 2100
	0    1    1    0   
$EndComp
$Comp
L Device:R_Variable R3
U 1 1 5D84A4FE
P 4350 2100
F 0 "R3" V 4105 2100 50  0000 C CNN
F 1 "0..10kΩ" V 4196 2100 50  0000 C CNN
F 2 "" V 4280 2100 50  0001 C CNN
F 3 "~" H 4350 2100 50  0001 C CNN
	1    4350 2100
	0    1    1    0   
$EndComp
Wire Wire Line
	3900 3050 3900 3250
$Comp
L Device:C C7
U 1 1 5D84B72E
P 5200 3100
F 0 "C7" H 5315 3146 50  0000 L CNN
F 1 "100pF" H 5315 3055 50  0000 L CNN
F 2 "" H 5238 2950 50  0001 C CNN
F 3 "~" H 5200 3100 50  0001 C CNN
	1    5200 3100
	1    0    0    -1  
$EndComp
$Comp
L Device:Antenna_Dipole AE1
U 1 1 5D84CE30
P 7550 2350
F 0 "AE1" H 7780 2264 50  0000 L CNN
F 1 "approx. 50Ω" H 7780 2173 50  0000 L CNN
F 2 "" H 7550 2350 50  0001 C CNN
F 3 "~" H 7550 2350 50  0001 C CNN
	1    7550 2350
	1    0    0    -1  
$EndComp
Text Notes 9900 7850 0    50   ~ 0
6
Text Notes 7800 2650 0    50   ~ 0
center-fed, 0.5λ
$Comp
L power:GNDA #PWR?
U 1 1 5DA0C713
P 3900 3250
F 0 "#PWR?" H 3900 3000 50  0001 C CNN
F 1 "GNDA" H 3905 3077 50  0000 C CNN
F 2 "" H 3900 3250 50  0001 C CNN
F 3 "" H 3900 3250 50  0001 C CNN
	1    3900 3250
	1    0    0    -1  
$EndComp
$Comp
L power:GNDA #PWR?
U 1 1 5DA0FF7A
P 3150 3250
F 0 "#PWR?" H 3150 3000 50  0001 C CNN
F 1 "GNDA" V 3155 3122 50  0000 R CNN
F 2 "" H 3150 3250 50  0001 C CNN
F 3 "" H 3150 3250 50  0001 C CNN
	1    3150 3250
	0    -1   -1   0   
$EndComp
Wire Wire Line
	4600 2500 4600 2950
Wire Wire Line
	4500 2950 4600 2950
Connection ~ 3850 2850
Wire Wire Line
	3850 2850 3900 2850
$Comp
L Connector:Conn_Coaxial FEED_LINE
U 1 1 5DA9C469
P 6150 2950
F 0 "FEED_LINE" H 6250 2925 50  0000 L CNN
F 1 "Conn_Coaxial_BNC" H 6250 2834 50  0000 L CNN
F 2 "" H 6150 2950 50  0001 C CNN
F 3 " ~" H 6150 2950 50  0001 C CNN
	1    6150 2950
	1    0    0    -1  
$EndComp
$Comp
L power:GNDPWR #PWR?
U 1 1 5DA9E32A
P 6150 3150
F 0 "#PWR?" H 6150 2950 50  0001 C CNN
F 1 "GNDPWR" H 6154 2996 50  0000 C CNN
F 2 "" H 6150 3100 50  0001 C CNN
F 3 "" H 6150 3100 50  0001 C CNN
	1    6150 3150
	1    0    0    -1  
$EndComp
$Comp
L Connector:Conn_Coaxial FEED_LINE
U 1 1 5DAA0A47
P 7650 2950
F 0 "FEED_LINE" V 7532 3050 50  0000 L CNN
F 1 "Conn_Coaxial_BNC" V 7623 3050 50  0000 L CNN
F 2 "" H 7650 2950 50  0001 C CNN
F 3 " ~" H 7650 2950 50  0001 C CNN
	1    7650 2950
	0    1    1    0   
$EndComp
Wire Wire Line
	7450 2950 7450 2550
Wire Wire Line
	7450 2550 7550 2550
Wire Wire Line
	7650 2750 7650 2550
Wire Notes Line
	7250 2300 8550 2300
Wire Notes Line
	8550 2300 8550 3100
Wire Notes Line
	8550 3100 7250 3100
Wire Notes Line
	7250 3100 7250 2300
$Comp
L power:GNDPWR #PWR?
U 1 1 5DAA74B4
P 5200 3250
F 0 "#PWR?" H 5200 3050 50  0001 C CNN
F 1 "GNDPWR" H 5204 3096 50  0000 C CNN
F 2 "" H 5200 3200 50  0001 C CNN
F 3 "" H 5200 3200 50  0001 C CNN
	1    5200 3250
	1    0    0    -1  
$EndComp
Wire Wire Line
	5500 4250 5500 3550
Wire Wire Line
	5400 4250 5400 3650
Wire Wire Line
	5400 3650 3550 3650
Wire Wire Line
	3550 3650 3550 3550
Wire Wire Line
	3550 3550 3150 3550
Wire Wire Line
	5800 5150 5800 5250
Wire Wire Line
	2350 5250 5800 5250
Wire Wire Line
	5700 5150 5700 5350
Wire Wire Line
	5700 5350 2250 5350
Wire Wire Line
	2250 2850 2350 2850
Wire Wire Line
	5300 3750 3450 3750
Wire Wire Line
	3450 3750 3450 3650
Wire Wire Line
	3450 3650 3150 3650
Wire Wire Line
	5300 3750 5300 4250
Wire Wire Line
	5200 4250 5200 4150
Wire Wire Line
	5200 4150 2150 4150
Wire Wire Line
	2150 4150 2150 2950
Wire Wire Line
	2150 2950 2350 2950
Wire Wire Line
	3650 3550 5500 3550
Wire Wire Line
	3650 3550 3650 3350
Wire Wire Line
	3650 3350 3150 3350
$Comp
L project:NRF52840-MDK USB_DONGLE
U 1 1 5DA910A5
P 5700 4700
F 0 "USB_DONGLE" V 6050 5450 50  0000 R CNN
F 1 "NRF52840-MDK" V 6150 5600 50  0000 R CNN
F 2 "" H 5300 5650 50  0001 C CNN
F 3 "" H 5300 5650 50  0001 C CNN
	1    5700 4700
	0    1    1    0   
$EndComp
$Comp
L Device:Battery BT1
U 1 1 5DAC8C2B
P 7150 3550
F 0 "BT1" H 7258 3596 50  0000 L CNN
F 1 "9..12V" H 7258 3505 50  0000 L CNN
F 2 "" V 7150 3610 50  0001 C CNN
F 3 "~" V 7150 3610 50  0001 C CNN
	1    7150 3550
	1    0    0    -1  
$EndComp
$Comp
L power:GNDPWR #PWR?
U 1 1 5DAD03F8
P 8050 3750
F 0 "#PWR?" H 8050 3550 50  0001 C CNN
F 1 "GNDPWR" V 8055 3642 50  0000 R CNN
F 2 "" H 8050 3700 50  0001 C CNN
F 3 "" H 8050 3700 50  0001 C CNN
	1    8050 3750
	0    -1   -1   0   
$EndComp
Wire Notes Line
	7000 3250 7000 4250
Wire Notes Line
	7000 4250 8550 4250
Wire Notes Line
	8550 3250 7000 3250
Text Notes 7000 4450 0    50   ~ 0
caution: 9V power does not allow\nfull range of resistances for R3
$Comp
L power:+9V #PWR?
U 1 1 5DAA975A
P 4100 3250
F 0 "#PWR?" H 4100 3100 50  0001 C CNN
F 1 "+9V" V 4115 3378 50  0000 L CNN
F 2 "" H 4100 3250 50  0001 C CNN
F 3 "" H 4100 3250 50  0001 C CNN
	1    4100 3250
	0    1    1    0   
$EndComp
$Comp
L pspice:OPAMP OPAMP
U 1 1 5D9C333E
P 4200 2950
F 0 "OPAMP" H 4400 3050 50  0000 C CNN
F 1 "LM7171" H 4450 3150 50  0000 C CNN
F 2 "" H 4200 2950 50  0001 C CNN
F 3 "~" H 4200 2950 50  0001 C CNN
	1    4200 2950
	1    0    0    1   
$EndComp
$Comp
L power:-9V #PWR?
U 1 1 5DAAB25B
P 4100 2650
F 0 "#PWR?" H 4100 2525 50  0001 C CNN
F 1 "-9V" V 4115 2778 50  0000 L CNN
F 2 "" H 4100 2650 50  0001 C CNN
F 3 "" H 4100 2650 50  0001 C CNN
	1    4100 2650
	0    1    1    0   
$EndComp
$Comp
L Device:Battery BT2
U 1 1 5DAAD002
P 7150 3950
F 0 "BT2" H 7258 3996 50  0000 L CNN
F 1 "9..12V" H 7258 3905 50  0000 L CNN
F 2 "" V 7150 4010 50  0001 C CNN
F 3 "~" V 7150 4010 50  0001 C CNN
	1    7150 3950
	1    0    0    -1  
$EndComp
$Comp
L power:-9V #PWR?
U 1 1 5DAAE962
P 8050 4150
F 0 "#PWR?" H 8050 4025 50  0001 C CNN
F 1 "-9V" V 8065 4278 50  0000 L CNN
F 2 "" H 8050 4150 50  0001 C CNN
F 3 "" H 8050 4150 50  0001 C CNN
	1    8050 4150
	0    1    1    0   
$EndComp
$Comp
L power:+9V #PWR?
U 1 1 5DAAF20A
P 8050 3350
F 0 "#PWR?" H 8050 3200 50  0001 C CNN
F 1 "+9V" V 8065 3478 50  0000 L CNN
F 2 "" H 8050 3350 50  0001 C CNN
F 3 "" H 8050 3350 50  0001 C CNN
	1    8050 3350
	0    1    1    0   
$EndComp
Connection ~ 4600 2950
Wire Wire Line
	7150 3350 7600 3350
Wire Wire Line
	7150 4150 7600 4150
$Comp
L Device:C C2
U 1 1 5DAC8211
P 7600 3550
F 0 "C2" H 7715 3596 50  0000 L CNN
F 1 "10nF" H 7715 3505 50  0000 L CNN
F 2 "" H 7638 3400 50  0001 C CNN
F 3 "~" H 7600 3550 50  0001 C CNN
	1    7600 3550
	1    0    0    -1  
$EndComp
$Comp
L Device:C C3
U 1 1 5DAC8AB9
P 8000 3550
F 0 "C3" H 8115 3596 50  0000 L CNN
F 1 "2.2μF" H 8115 3505 50  0000 L CNN
F 2 "" H 8038 3400 50  0001 C CNN
F 3 "~" H 8000 3550 50  0001 C CNN
	1    8000 3550
	1    0    0    -1  
$EndComp
$Comp
L Device:C C4
U 1 1 5DAC8ED4
P 7600 3950
F 0 "C4" H 7715 3996 50  0000 L CNN
F 1 "10nF" H 7715 3905 50  0000 L CNN
F 2 "" H 7638 3800 50  0001 C CNN
F 3 "~" H 7600 3950 50  0001 C CNN
	1    7600 3950
	1    0    0    -1  
$EndComp
$Comp
L Device:C C5
U 1 1 5DAC9537
P 8000 3950
F 0 "C5" H 8115 3996 50  0000 L CNN
F 1 "2.2μF" H 8115 3905 50  0000 L CNN
F 2 "" H 8038 3800 50  0001 C CNN
F 3 "~" H 8000 3950 50  0001 C CNN
	1    8000 3950
	1    0    0    -1  
$EndComp
Wire Wire Line
	8000 3400 8000 3350
Connection ~ 8000 3350
Wire Wire Line
	8000 3350 8050 3350
Wire Wire Line
	7600 3400 7600 3350
Connection ~ 7600 3350
Wire Wire Line
	7600 3350 8000 3350
Wire Wire Line
	8000 4100 8000 4150
Connection ~ 8000 4150
Wire Wire Line
	8000 4150 8050 4150
Wire Wire Line
	7600 4100 7600 4150
Connection ~ 7600 4150
Wire Wire Line
	7600 4150 8000 4150
Wire Wire Line
	7600 3700 7600 3750
Wire Wire Line
	7150 3750 7600 3750
Connection ~ 7150 3750
Connection ~ 7600 3750
Wire Wire Line
	7600 3750 7600 3800
Wire Wire Line
	7600 3750 8000 3750
Wire Wire Line
	8000 3750 8000 3700
Wire Wire Line
	8000 3800 8000 3750
Connection ~ 8000 3750
Wire Wire Line
	8000 3750 8050 3750
Wire Notes Line
	8550 3250 8550 4250
$Comp
L Device:C C6
U 1 1 5DAFAC54
P 4200 2500
F 0 "C6" V 3948 2500 50  0000 C CNN
F 1 "2pF" V 4039 2500 50  0000 C CNN
F 2 "" H 4238 2350 50  0001 C CNN
F 3 "~" H 4200 2500 50  0001 C CNN
	1    4200 2500
	0    1    1    0   
$EndComp
Wire Wire Line
	4350 2500 4600 2500
Wire Wire Line
	4050 2500 3850 2500
$Comp
L Device:C C1
U 1 1 5DB007E4
P 3350 2850
F 0 "C1" V 3098 2850 50  0000 C CNN
F 1 "10nF" V 3189 2850 50  0000 C CNN
F 2 "" H 3388 2700 50  0001 C CNN
F 3 "~" H 3350 2850 50  0001 C CNN
	1    3350 2850
	0    1    1    0   
$EndComp
Wire Wire Line
	3200 2850 3150 2850
$Comp
L Device:C C8
U 1 1 5DB02707
P 5800 2950
F 0 "C8" V 5548 2950 50  0000 C CNN
F 1 "10nF" V 5639 2950 50  0000 C CNN
F 2 "" H 5838 2800 50  0001 C CNN
F 3 "~" H 5800 2950 50  0001 C CNN
	1    5800 2950
	0    1    1    0   
$EndComp
Wire Wire Line
	5200 2950 5650 2950
Text Notes 5150 2900 0    50   ~ 0
fc=22.5MHz
Wire Wire Line
	4600 2950 4800 2950
$Comp
L Device:L L1
U 1 1 5D84C19A
P 4950 2950
F 0 "L1" V 4769 2950 50  0000 C CNN
F 1 "500nH" V 4860 2950 50  0000 C CNN
F 2 "" H 4950 2950 50  0001 C CNN
F 3 "~" H 4950 2950 50  0001 C CNN
	1    4950 2950
	0    1    1    0   
$EndComp
Wire Wire Line
	5100 2950 5200 2950
Connection ~ 5200 2950
Wire Wire Line
	3900 2100 3850 2100
Wire Wire Line
	3850 2100 3850 2500
Connection ~ 3850 2500
Wire Wire Line
	3850 2500 3850 2850
Wire Wire Line
	4500 2100 4600 2100
Wire Wire Line
	4600 2100 4600 2500
Connection ~ 4600 2500
Text Notes 3150 2300 0    50   ~ 0
max gain: -11
Wire Wire Line
	2350 5250 2350 3750
$Comp
L project:HC-SR08 DDS
U 1 1 5DA05E15
P 2750 3350
F 0 "DDS" H 2750 2685 50  0000 C CNN
F 1 "HC-SR08" H 2750 2776 50  0000 C CNN
F 2 "" H 2350 4350 50  0001 C CNN
F 3 "" H 2350 4350 50  0001 C CNN
	1    2750 3350
	-1   0    0    -1  
$EndComp
Wire Wire Line
	2250 5350 2250 3450
Wire Wire Line
	2250 3450 2350 3450
Connection ~ 2250 3450
Wire Wire Line
	2250 3450 2250 2850
Wire Wire Line
	2350 3750 2350 3650
Connection ~ 2350 3750
Wire Wire Line
	2350 3550 2350 3650
Connection ~ 2350 3650
$EndSCHEMATC
